hardware/fpga_memory/fpga_memory.sim/sim_1/behav/xsim/simulate.log
Time resolution is 1 ps
A B cin | S cout
---------|-----
00000000 00000000 0 | 00000000 0
00000001 00000000 0 | 00000001 0
00000010 00000000 0 | 00000010 0
00000011 00000000 0 | 00000011 0
00000100 00000000 0 | 00000100 0
00000101 00000000 0 | 00000101 0
00000110 00000000 0 | 00000110 0
00000111 00000000 0 | 00000111 0
00001000 00000000 0 | 00001000 0
00001001 00000000 0 | 00001001 0
00001010 00000000 0 | 00001010 0
00001011 00000000 0 | 00001011 0
00001100 00000000 0 | 00001100 0
00001101 00000000 0 | 00001101 0
00001110 00000000 0 | 00001110 0
00001111 00000000 0 | 00001111 0
00010000 00000000 0 | 00010000 0
00010001 00000000 0 | 00010001 0
00010010 00000000 0 | 00010010 0
00010011 00000000 0 | 00010011 0
00010100 00000000 0 | 00010100 0
00010101 00000000 0 | 00010101 0
00010110 00000000 0 | 00010110 0
00010111 00000000 0 | 00010111 0
00011000 00000000 0 | 00011000 0
00011001 00000000 0 | 00011001 0
00011010 00000000 0 | 00011010 0
00011011 00000000 0 | 00011011 0
00011100 00000000 0 | 00011100 0
00011101 00000000 0 | 00011101 0
00011110 00000000 0 | 00011110 0
00011111 00000000 0 | 00011111 0
00000000 00000001 0 | 00000001 0
00000001 00000001 0 | 00000010 0
00000010 00000001 0 | 00000011 0
00000011 00000001 0 | 00000100 0
00000100 00000001 0 | 00000101 0
00000101 00000001 0 | 00000110 0
00000110 00000001 0 | 00000111 0
00000111 00000001 0 | 00001000 0
00001000 00000001 0 | 00001001 0
00001001 00000001 0 | 00001010 0
00001010 00000001 0 | 00001011 0
00001011 00000001 0 | 00001100 0
00001100 00000001 0 | 00001101 0
00001101 00000001 0 | 00001110 0
00001110 00000001 0 | 00001111 0
00001111 00000001 0 | 00010000 0
00010000 00000001 0 | 00010001 0
00010001 00000001 0 | 00010010 0
00010010 00000001 0 | 00010011 0
00010011 00000001 0 | 00010100 0
00010100 00000001 0 | 00010101 0
00010101 00000001 0 | 00010110 0
00010110 00000001 0 | 00010111 0
00010111 00000001 0 | 00011000 0
00011000 00000001 0 | 00011001 0
00011001 00000001 0 | 00011010 0
00011010 00000001 0 | 00011011 0
00011011 00000001 0 | 00011100 0
00011100 00000001 0 | 00011101 0
00011101 00000001 0 | 00011110 0
00011110 00000001 0 | 00011111 0
00011111 00000001 0 | 00100000 0
00000000 00000010 0 | 00000010 0
00000001 00000010 0 | 00000011 0
00000010 00000010 0 | 00000100 0
00000011 00000010 0 | 00000101 0
00000100 00000010 0 | 00000110 0
00000101 00000010 0 | 00000111 0
00000110 00000010 0 | 00001000 0
00000111 00000010 0 | 00001001 0
00001000 00000010 0 | 00001010 0
00001001 00000010 0 | 00001011 0
00001010 00000010 0 | 00001100 0
00001011 00000010 0 | 00001101 0
00001100 00000010 0 | 00001110 0
00001101 00000010 0 | 00001111 0
00001110 00000010 0 | 00010000 0
00001111 00000010 0 | 00010001 0
00010000 00000010 0 | 00010010 0
00010001 00000010 0 | 00010011 0
00010010 00000010 0 | 00010100 0
00010011 00000010 0 | 00010101 0
00010100 00000010 0 | 00010110 0
00010101 00000010 0 | 00010111 0
00010110 00000010 0 | 00011000 0
00010111 00000010 0 | 00011001 0
00011000 00000010 0 | 00011010 0
00011001 00000010 0 | 00011011 0
00011010 00000010 0 | 00011100 0
00011011 00000010 0 | 00011101 0
00011100 00000010 0 | 00011110 0
00011101 00000010 0 | 00011111 0
00011110 00000010 0 | 00100000 0
00011111 00000010 0 | 00100001 0
00000000 00000011 0 | 00000011 0
00000001 00000011 0 | 00000100 0
00000010 00000011 0 | 00000101 0
00000011 00000011 0 | 00000110 0
00000100 00000011 0 | 00000111 0
00000101 00000011 0 | 00001000 0
00000110 00000011 0 | 00001001 0
00000111 00000011 0 | 00001010 0
00001000 00000011 0 | 00001011 0
00001001 00000011 0 | 00001100 0
00001010 00000011 0 | 00001101 0
00001011 00000011 0 | 00001110 0
00001100 00000011 0 | 00001111 0
00001101 00000011 0 | 00010000 0
00001110 00000011 0 | 00010001 0
00001111 00000011 0 | 00010010 0
00010000 00000011 0 | 00010011 0
00010001 00000011 0 | 00010100 0
00010010 00000011 0 | 00010101 0
00010011 00000011 0 | 00010110 0
00010100 00000011 0 | 00010111 0
00010101 00000011 0 | 00011000 0
00010110 00000011 0 | 00011001 0
00010111 00000011 0 | 00011010 0
00011000 00000011 0 | 00011011 0
00011001 00000011 0 | 00011100 0
00011010 00000011 0 | 00011101 0
00011011 00000011 0 | 00011110 0
00011100 00000011 0 | 00011111 0
00011101 00000011 0 | 00100000 0
00011110 00000011 0 | 00100001 0
00011111 00000011 0 | 00100010 0
00000000 00000100 0 | 00000100 0
00000001 00000100 0 | 00000101 0
00000010 00000100 0 | 00000110 0
00000011 00000100 0 | 00000111 0
00000100 00000100 0 | 00001000 0
00000101 00000100 0 | 00001001 0
00000110 00000100 0 | 00001010 0
00000111 00000100 0 | 00001011 0
00001000 00000100 0 | 00001100 0
00001001 00000100 0 | 00001101 0
00001010 00000100 0 | 00001110 0
00001011 00000100 0 | 00001111 0
00001100 00000100 0 | 00010000 0
00001101 00000100 0 | 00010001 0
00001110 00000100 0 | 00010010 0
00001111 00000100 0 | 00010011 0
00010000 00000100 0 | 00010100 0
00010001 00000100 0 | 00010101 0
00010010 00000100 0 | 00010110 0
00010011 00000100 0 | 00010111 0
00010100 00000100 0 | 00011000 0
00010101 00000100 0 | 00011001 0
00010110 00000100 0 | 00011010 0
00010111 00000100 0 | 00011011 0
00011000 00000100 0 | 00011100 0
00011001 00000100 0 | 00011101 0
00011010 00000100 0 | 00011110 0
00011011 00000100 0 | 00011111 0
00011100 00000100 0 | 00100000 0
00011101 00000100 0 | 00100001 0
00011110 00000100 0 | 00100010 0
00011111 00000100 0 | 00100011 0
00000000 00000101 0 | 00000101 0
00000001 00000101 0 | 00000110 0
00000010 00000101 0 | 00000111 0
00000011 00000101 0 | 00001000 0
00000100 00000101 0 | 00001001 0
00000101 00000101 0 | 00001010 0
00000110 00000101 0 | 00001011 0
00000111 00000101 0 | 00001100 0
00001000 00000101 0 | 00001101 0
00001001 00000101 0 | 00001110 0
00001010 00000101 0 | 00001111 0
00001011 00000101 0 | 00010000 0
00001100 00000101 0 | 00010001 0
00001101 00000101 0 | 00010010 0
00001110 00000101 0 | 00010011 0
00001111 00000101 0 | 00010100 0
00010000 00000101 0 | 00010101 0
00010001 00000101 0 | 00010110 0
00010010 00000101 0 | 00010111 0
00010011 00000101 0 | 00011000 0
00010100 00000101 0 | 00011001 0
00010101 00000101 0 | 00011010 0
00010110 00000101 0 | 00011011 0
00010111 00000101 0 | 00011100 0
00011000 00000101 0 | 00011101 0
00011001 00000101 0 | 00011110 0
00011010 00000101 0 | 00011111 0
00011011 00000101 0 | 00100000 0
00011100 00000101 0 | 00100001 0
00011101 00000101 0 | 00100010 0
00011110 00000101 0 | 00100011 0
00011111 00000101 0 | 00100100 0
00000000 00000110 0 | 00000110 0
00000001 00000110 0 | 00000111 0
00000010 00000110 0 | 00001000 0
00000011 00000110 0 | 00001001 0
00000100 00000110 0 | 00001010 0
00000101 00000110 0 | 00001011 0
00000110 00000110 0 | 00001100 0
00000111 00000110 0 | 00001101 0
00001000 00000110 0 | 00001110 0
00001001 00000110 0 | 00001111 0
00001010 00000110 0 | 00010000 0
00001011 00000110 0 | 00010001 0
00001100 00000110 0 | 00010010 0
00001101 00000110 0 | 00010011 0
00001110 00000110 0 | 00010100 0
00001111 00000110 0 | 00010101 0
00010000 00000110 0 | 00010110 0
00010001 00000110 0 | 00010111 0
00010010 00000110 0 | 00011000 0
00010011 00000110 0 | 00011001 0
00010100 00000110 0 | 00011010 0
00010101 00000110 0 | 00011011 0
00010110 00000110 0 | 00011100 0
00010111 00000110 0 | 00011101 0
00011000 00000110 0 | 00011110 0
00011001 00000110 0 | 00011111 0
00011010 00000110 0 | 00100000 0
00011011 00000110 0 | 00100001 0
00011100 00000110 0 | 00100010 0
00011101 00000110 0 | 00100011 0
00011110 00000110 0 | 00100100 0
00011111 00000110 0 | 00100101 0
00000000 00000111 0 | 00000111 0
00000001 00000111 0 | 00001000 0
00000010 00000111 0 | 00001001 0
00000011 00000111 0 | 00001010 0
00000100 00000111 0 | 00001011 0
00000101 00000111 0 | 00001100 0
00000110 00000111 0 | 00001101 0
00000111 00000111 0 | 00001110 0
00001000 00000111 0 | 00001111 0
00001001 00000111 0 | 00010000 0
00001010 00000111 0 | 00010001 0
00001011 00000111 0 | 00010010 0
00001100 00000111 0 | 00010011 0
00001101 00000111 0 | 00010100 0
00001110 00000111 0 | 00010101 0
00001111 00000111 0 | 00010110 0
00010000 00000111 0 | 00010111 0
00010001 00000111 0 | 00011000 0
00010010 00000111 0 | 00011001 0
00010011 00000111 0 | 00011010 0
00010100 00000111 0 | 00011011 0
00010101 00000111 0 | 00011100 0
00010110 00000111 0 | 00011101 0
00010111 00000111 0 | 00011110 0
00011000 00000111 0 | 00011111 0
00011001 00000111 0 | 00100000 0
00011010 00000111 0 | 00100001 0
00011011 00000111 0 | 00100010 0
00011100 00000111 0 | 00100011 0
00011101 00000111 0 | 00100100 0
00011110 00000111 0 | 00100101 0
00011111 00000111 0 | 00100110 0
00000000 00001000 0 | 00001000 0
00000001 00001000 0 | 00001001 0
00000010 00001000 0 | 00001010 0
00000011 00001000 0 | 00001011 0
00000100 00001000 0 | 00001100 0
00000101 00001000 0 | 00001101 0
00000110 00001000 0 | 00001110 0
00000111 00001000 0 | 00001111 0
00001000 00001000 0 | 00010000 0
00001001 00001000 0 | 00010001 0
00001010 00001000 0 | 00010010 0
00001011 00001000 0 | 00010011 0
00001100 00001000 0 | 00010100 0
00001101 00001000 0 | 00010101 0
00001110 00001000 0 | 00010110 0
00001111 00001000 0 | 00010111 0
00010000 00001000 0 | 00011000 0
00010001 00001000 0 | 00011001 0
00010010 00001000 0 | 00011010 0
00010011 00001000 0 | 00011011 0
00010100 00001000 0 | 00011100 0
00010101 00001000 0 | 00011101 0
00010110 00001000 0 | 00011110 0
00010111 00001000 0 | 00011111 0
00011000 00001000 0 | 00100000 0
00011001 00001000 0 | 00100001 0
00011010 00001000 0 | 00100010 0
00011011 00001000 0 | 00100011 0
00011100 00001000 0 | 00100100 0
00011101 00001000 0 | 00100101 0
00011110 00001000 0 | 00100110 0
00011111 00001000 0 | 00100111 0
00000000 00001001 0 | 00001001 0
00000001 00001001 0 | 00001010 0
00000010 00001001 0 | 00001011 0
00000011 00001001 0 | 00001100 0
00000100 00001001 0 | 00001101 0
00000101 00001001 0 | 00001110 0
00000110 00001001 0 | 00001111 0
00000111 00001001 0 | 00010000 0
00001000 00001001 0 | 00010001 0
00001001 00001001 0 | 00010010 0
00001010 00001001 0 | 00010011 0
00001011 00001001 0 | 00010100 0
00001100 00001001 0 | 00010101 0
00001101 00001001 0 | 00010110 0
00001110 00001001 0 | 00010111 0
00001111 00001001 0 | 00011000 0
00010000 00001001 0 | 00011001 0
00010001 00001001 0 | 00011010 0
00010010 00001001 0 | 00011011 0
00010011 00001001 0 | 00011100 0
00010100 00001001 0 | 00011101 0
00010101 00001001 0 | 00011110 0
00010110 00001001 0 | 00011111 0
00010111 00001001 0 | 00100000 0
00011000 00001001 0 | 00100001 0
00011001 00001001 0 | 00100010 0
00011010 00001001 0 | 00100011 0
00011011 00001001 0 | 00100100 0
00011100 00001001 0 | 00100101 0
00011101 00001001 0 | 00100110 0
00011110 00001001 0 | 00100111 0
00011111 00001001 0 | 00101000 0
00000000 00001010 0 | 00001010 0
00000001 00001010 0 | 00001011 0
00000010 00001010 0 | 00001100 0
00000011 00001010 0 | 00001101 0
00000100 00001010 0 | 00001110 0
00000101 00001010 0 | 00001111 0
00000110 00001010 0 | 00010000 0
00000111 00001010 0 | 00010001 0
00001000 00001010 0 | 00010010 0
00001001 00001010 0 | 00010011 0
00001010 00001010 0 | 00010100 0
00001011 00001010 0 | 00010101 0
00001100 00001010 0 | 00010110 0
00001101 00001010 0 | 00010111 0
00001110 00001010 0 | 00011000 0
00001111 00001010 0 | 00011001 0
00010000 00001010 0 | 00011010 0
00010001 00001010 0 | 00011011 0
00010010 00001010 0 | 00011100 0
00010011 00001010 0 | 00011101 0
00010100 00001010 0 | 00011110 0
00010101 00001010 0 | 00011111 0
00010110 00001010 0 | 00100000 0
00010111 00001010 0 | 00100001 0
00011000 00001010 0 | 00100010 0
00011001 00001010 0 | 00100011 0
00011010 00001010 0 | 00100100 0
00011011 00001010 0 | 00100101 0
00011100 00001010 0 | 00100110 0
00011101 00001010 0 | 00100111 0
00011110 00001010 0 | 00101000 0
00011111 00001010 0 | 00101001 0
00000000 00001011 0 | 00001011 0
00000001 00001011 0 | 00001100 0
00000010 00001011 0 | 00001101 0
00000011 00001011 0 | 00001110 0
00000100 00001011 0 | 00001111 0
00000101 00001011 0 | 00010000 0
00000110 00001011 0 | 00010001 0
00000111 00001011 0 | 00010010 0
00001000 00001011 0 | 00010011 0
00001001 00001011 0 | 00010100 0
00001010 00001011 0 | 00010101 0
00001011 00001011 0 | 00010110 0
00001100 00001011 0 | 00010111 0
00001101 00001011 0 | 00011000 0
00001110 00001011 0 | 00011001 0
00001111 00001011 0 | 00011010 0
00010000 00001011 0 | 00011011 0
00010001 00001011 0 | 00011100 0
00010010 00001011 0 | 00011101 0
00010011 00001011 0 | 00011110 0
00010100 00001011 0 | 00011111 0
00010101 00001011 0 | 00100000 0
00010110 00001011 0 | 00100001 0
00010111 00001011 0 | 00100010 0
00011000 00001011 0 | 00100011 0
00011001 00001011 0 | 00100100 0
00011010 00001011 0 | 00100101 0
00011011 00001011 0 | 00100110 0
00011100 00001011 0 | 00100111 0
00011101 00001011 0 | 00101000 0
00011110 00001011 0 | 00101001 0
00011111 00001011 0 | 00101010 0
00000000 00001100 0 | 00001100 0
00000001 00001100 0 | 00001101 0
00000010 00001100 0 | 00001110 0
00000011 00001100 0 | 00001111 0
00000100 00001100 0 | 00010000 0
00000101 00001100 0 | 00010001 0
00000110 00001100 0 | 00010010 0
00000111 00001100 0 | 00010011 0
00001000 00001100 0 | 00010100 0
00001001 00001100 0 | 00010101 0
00001010 00001100 0 | 00010110 0
00001011 00001100 0 | 00010111 0
00001100 00001100 0 | 00011000 0
00001101 00001100 0 | 00011001 0
00001110 00001100 0 | 00011010 0
00001111 00001100 0 | 00011011 0
00010000 00001100 0 | 00011100 0
00010001 00001100 0 | 00011101 0
00010010 00001100 0 | 00011110 0
00010011 00001100 0 | 00011111 0
00010100 00001100 0 | 00100000 0
00010101 00001100 0 | 00100001 0
00010110 00001100 0 | 00100010 0
00010111 00001100 0 | 00100011 0
00011000 00001100 0 | 00100100 0
00011001 00001100 0 | 00100101 0
00011010 00001100 0 | 00100110 0
00011011 00001100 0 | 00100111 0
00011100 00001100 0 | 00101000 0
00011101 00001100 0 | 00101001 0
00011110 00001100 0 | 00101010 0
00011111 00001100 0 | 00101011 0
00000000 00001101 0 | 00001101 0
00000001 00001101 0 | 00001110 0
00000010 00001101 0 | 00001111 0
00000011 00001101 0 | 00010000 0
00000100 00001101 0 | 00010001 0
00000101 00001101 0 | 00010010 0
00000110 00001101 0 | 00010011 0
00000111 00001101 0 | 00010100 0
00001000 00001101 0 | 00010101 0
00001001 00001101 0 | 00010110 0
00001010 00001101 0 | 00010111 0
00001011 00001101 0 | 00011000 0
00001100 00001101 0 | 00011001 0
00001101 00001101 0 | 00011010 0
00001110 00001101 0 | 00011011 0
00001111 00001101 0 | 00011100 0
00010000 00001101 0 | 00011101 0
00010001 00001101 0 | 00011110 0
00010010 00001101 0 | 00011111 0
00010011 00001101 0 | 00100000 0
00010100 00001101 0 | 00100001 0
00010101 00001101 0 | 00100010 0
00010110 00001101 0 | 00100011 0
00010111 00001101 0 | 00100100 0
00011000 00001101 0 | 00100101 0
00011001 00001101 0 | 00100110 0
00011010 00001101 0 | 00100111 0
00011011 00001101 0 | 00101000 0
00011100 00001101 0 | 00101001 0
00011101 00001101 0 | 00101010 0
00011110 00001101 0 | 00101011 0
00011111 00001101 0 | 00101100 0
00000000 00001110 0 | 00001110 0
00000001 00001110 0 | 00001111 0
00000010 00001110 0 | 00010000 0
00000011 00001110 0 | 00010001 0
00000100 00001110 0 | 00010010 0
00000101 00001110 0 | 00010011 0
00000110 00001110 0 | 00010100 0
00000111 00001110 0 | 00010101 0
00001000 00001110 0 | 00010110 0
00001001 00001110 0 | 00010111 0
00001010 00001110 0 | 00011000 0
00001011 00001110 0 | 00011001 0
00001100 00001110 0 | 00011010 0
00001101 00001110 0 | 00011011 0
00001110 00001110 0 | 00011100 0
00001111 00001110 0 | 00011101 0
00010000 00001110 0 | 00011110 0
00010001 00001110 0 | 00011111 0
00010010 00001110 0 | 00100000 0
00010011 00001110 0 | 00100001 0
00010100 00001110 0 | 00100010 0
00010101 00001110 0 | 00100011 0
00010110 00001110 0 | 00100100 0
00010111 00001110 0 | 00100101 0
00011000 00001110 0 | 00100110 0
00011001 00001110 0 | 00100111 0
00011010 00001110 0 | 00101000 0
00011011 00001110 0 | 00101001 0
00011100 00001110 0 | 00101010 0
00011101 00001110 0 | 00101011 0
00011110 00001110 0 | 00101100 0
00011111 00001110 0 | 00101101 0
00000000 00001111 0 | 00001111 0
00000001 00001111 0 | 00010000 0
00000010 00001111 0 | 00010001 0
00000011 00001111 0 | 00010010 0
00000100 00001111 0 | 00010011 0
00000101 00001111 0 | 00010100 0
00000110 00001111 0 | 00010101 0
00000111 00001111 0 | 00010110 0
00001000 00001111 0 | 00010111 0
00001001 00001111 0 | 00011000 0
00001010 00001111 0 | 00011001 0
00001011 00001111 0 | 00011010 0
00001100 00001111 0 | 00011011 0
00001101 00001111 0 | 00011100 0
00001110 00001111 0 | 00011101 0
00001111 00001111 0 | 00011110 0
00010000 00001111 0 | 00011111 0
00010001 00001111 0 | 00100000 0
00010010 00001111 0 | 00100001 0
00010011 00001111 0 | 00100010 0
00010100 00001111 0 | 00100011 0
00010101 00001111 0 | 00100100 0
00010110 00001111 0 | 00100101 0
00010111 00001111 0 | 00100110 0
00011000 00001111 0 | 00100111 0
00011001 00001111 0 | 00101000 0
00011010 00001111 0 | 00101001 0
00011011 00001111 0 | 00101010 0
00011100 00001111 0 | 00101011 0
00011101 00001111 0 | 00101100 0
00011110 00001111 0 | 00101101 0
00011111 00001111 0 | 00101110 0
00000000 00010000 0 | 00010000 0
00000001 00010000 0 | 00010001 0
00000010 00010000 0 | 00010010 0
00000011 00010000 0 | 00010011 0
00000100 00010000 0 | 00010100 0
00000101 00010000 0 | 00010101 0
00000110 00010000 0 | 00010110 0
00000111 00010000 0 | 00010111 0
00001000 00010000 0 | 00011000 0
00001001 00010000 0 | 00011001 0
00001010 00010000 0 | 00011010 0
00001011 00010000 0 | 00011011 0
00001100 00010000 0 | 00011100 0
00001101 00010000 0 | 00011101 0
00001110 00010000 0 | 00011110 0
00001111 00010000 0 | 00011111 0
00010000 00010000 0 | 00100000 0
00010001 00010000 0 | 00100001 0
00010010 00010000 0 | 00100010 0
00010011 00010000 0 | 00100011 0
00010100 00010000 0 | 00100100 0
00010101 00010000 0 | 00100101 0
00010110 00010000 0 | 00100110 0
00010111 00010000 0 | 00100111 0
00011000 00010000 0 | 00101000 0
00011001 00010000 0 | 00101001 0
00011010 00010000 0 | 00101010 0
00011011 00010000 0 | 00101011 0
00011100 00010000 0 | 00101100 0
00011101 00010000 0 | 00101101 0
00011110 00010000 0 | 00101110 0
00011111 00010000 0 | 00101111 0
00000000 00010001 0 | 00010001 0
00000001 00010001 0 | 00010010 0
00000010 00010001 0 | 00010011 0
00000011 00010001 0 | 00010100 0
00000100 00010001 0 | 00010101 0
00000101 00010001 0 | 00010110 0
00000110 00010001 0 | 00010111 0
00000111 00010001 0 | 00011000 0
00001000 00010001 0 | 00011001 0
00001001 00010001 0 | 00011010 0
00001010 00010001 0 | 00011011 0
00001011 00010001 0 | 00011100 0
00001100 00010001 0 | 00011101 0
00001101 00010001 0 | 00011110 0
00001110 00010001 0 | 00011111 0
00001111 00010001 0 | 00100000 0
00010000 00010001 0 | 00100001 0
00010001 00010001 0 | 00100010 0
00010010 00010001 0 | 00100011 0
00010011 00010001 0 | 00100100 0
00010100 00010001 0 | 00100101 0
00010101 00010001 0 | 00100110 0
00010110 00010001 0 | 00100111 0
00010111 00010001 0 | 00101000 0
00011000 00010001 0 | 00101001 0
00011001 00010001 0 | 00101010 0
00011010 00010001 0 | 00101011 0
00011011 00010001 0 | 00101100 0
00011100 00010001 0 | 00101101 0
00011101 00010001 0 | 00101110 0
00011110 00010001 0 | 00101111 0
00011111 00010001 0 | 00110000 0
00000000 00010010 0 | 00010010 0
00000001 00010010 0 | 00010011 0
00000010 00010010 0 | 00010100 0
00000011 00010010 0 | 00010101 0
00000100 00010010 0 | 00010110 0
00000101 00010010 0 | 00010111 0
00000110 00010010 0 | 00011000 0
00000111 00010010 0 | 00011001 0
00001000 00010010 0 | 00011010 0
00001001 00010010 0 | 00011011 0
00001010 00010010 0 | 00011100 0
00001011 00010010 0 | 00011101 0
00001100 00010010 0 | 00011110 0
00001101 00010010 0 | 00011111 0
00001110 00010010 0 | 00100000 0
00001111 00010010 0 | 00100001 0
00010000 00010010 0 | 00100010 0
00010001 00010010 0 | 00100011 0
00010010 00010010 0 | 00100100 0
00010011 00010010 0 | 00100101 0
00010100 00010010 0 | 00100110 0
00010101 00010010 0 | 00100111 0
00010110 00010010 0 | 00101000 0
00010111 00010010 0 | 00101001 0
00011000 00010010 0 | 00101010 0
00011001 00010010 0 | 00101011 0
00011010 00010010 0 | 00101100 0
00011011 00010010 0 | 00101101 0
00011100 00010010 0 | 00101110 0
00011101 00010010 0 | 00101111 0
00011110 00010010 0 | 00110000 0
00011111 00010010 0 | 00110001 0
00000000 00010011 0 | 00010011 0
00000001 00010011 0 | 00010100 0
00000010 00010011 0 | 00010101 0
00000011 00010011 0 | 00010110 0
00000100 00010011 0 | 00010111 0
00000101 00010011 0 | 00011000 0
00000110 00010011 0 | 00011001 0
00000111 00010011 0 | 00011010 0
00001000 00010011 0 | 00011011 0
00001001 00010011 0 | 00011100 0
00001010 00010011 0 | 00011101 0
00001011 00010011 0 | 00011110 0
00001100 00010011 0 | 00011111 0
00001101 00010011 0 | 00100000 0
00001110 00010011 0 | 00100001 0
00001111 00010011 0 | 00100010 0
00010000 00010011 0 | 00100011 0
00010001 00010011 0 | 00100100 0
00010010 00010011 0 | 00100101 0
00010011 00010011 0 | 00100110 0
00010100 00010011 0 | 00100111 0
00010101 00010011 0 | 00101000 0
00010110 00010011 0 | 00101001 0
00010111 00010011 0 | 00101010 0
00011000 00010011 0 | 00101011 0
00011001 00010011 0 | 00101100 0
00011010 00010011 0 | 00101101 0
00011011 00010011 0 | 00101110 0
00011100 00010011 0 | 00101111 0
00011101 00010011 0 | 00110000 0
00011110 00010011 0 | 00110001 0
00011111 00010011 0 | 00110010 0
00000000 00010100 0 | 00010100 0
00000001 00010100 0 | 00010101 0
00000010 00010100 0 | 00010110 0
00000011 00010100 0 | 00010111 0
00000100 00010100 0 | 00011000 0
00000101 00010100 0 | 00011001 0
00000110 00010100 0 | 00011010 0
00000111 00010100 0 | 00011011 0
00001000 00010100 0 | 00011100 0
00001001 00010100 0 | 00011101 0
00001010 00010100 0 | 00011110 0
00001011 00010100 0 | 00011111 0
00001100 00010100 0 | 00100000 0
00001101 00010100 0 | 00100001 0
00001110 00010100 0 | 00100010 0
00001111 00010100 0 | 00100011 0
00010000 00010100 0 | 00100100 0
00010001 00010100 0 | 00100101 0
00010010 00010100 0 | 00100110 0
00010011 00010100 0 | 00100111 0
00010100 00010100 0 | 00101000 0
00010101 00010100 0 | 00101001 0
00010110 00010100 0 | 00101010 0
00010111 00010100 0 | 00101011 0
00011000 00010100 0 | 00101100 0
00011001 00010100 0 | 00101101 0
00011010 00010100 0 | 00101110 0
00011011 00010100 0 | 00101111 0
00011100 00010100 0 | 00110000 0
00011101 00010100 0 | 00110001 0
00011110 00010100 0 | 00110010 0
00011111 00010100 0 | 00110011 0
00000000 00010101 0 | 00010101 0
00000001 00010101 0 | 00010110 0
00000010 00010101 0 | 00010111 0
00000011 00010101 0 | 00011000 0
00000100 00010101 0 | 00011001 0
00000101 00010101 0 | 00011010 0
00000110 00010101 0 | 00011011 0
00000111 00010101 0 | 00011100 0
00001000 00010101 0 | 00011101 0
00001001 00010101 0 | 00011110 0
00001010 00010101 0 | 00011111 0
00001011 00010101 0 | 00100000 0
00001100 00010101 0 | 00100001 0
00001101 00010101 0 | 00100010 0
00001110 00010101 0 | 00100011 0
00001111 00010101 0 | 00100100 0
00010000 00010101 0 | 00100101 0
00010001 00010101 0 | 00100110 0
00010010 00010101 0 | 00100111 0
00010011 00010101 0 | 00101000 0
00010100 00010101 0 | 00101001 0
00010101 00010101 0 | 00101010 0
00010110 00010101 0 | 00101011 0
00010111 00010101 0 | 00101100 0
00011000 00010101 0 | 00101101 0
00011001 00010101 0 | 00101110 0
00011010 00010101 0 | 00101111 0
00011011 00010101 0 | 00110000 0
00011100 00010101 0 | 00110001 0
00011101 00010101 0 | 00110010 0
00011110 00010101 0 | 00110011 0
00011111 00010101 0 | 00110100 0
00000000 00010110 0 | 00010110 0
00000001 00010110 0 | 00010111 0
00000010 00010110 0 | 00011000 0
00000011 00010110 0 | 00011001 0
00000100 00010110 0 | 00011010 0
00000101 00010110 0 | 00011011 0
00000110 00010110 0 | 00011100 0
00000111 00010110 0 | 00011101 0
00001000 00010110 0 | 00011110 0
00001001 00010110 0 | 00011111 0
00001010 00010110 0 | 00100000 0
00001011 00010110 0 | 00100001 0
00001100 00010110 0 | 00100010 0
00001101 00010110 0 | 00100011 0
00001110 00010110 0 | 00100100 0
00001111 00010110 0 | 00100101 0
00010000 00010110 0 | 00100110 0
00010001 00010110 0 | 00100111 0
00010010 00010110 0 | 00101000 0
00010011 00010110 0 | 00101001 0
00010100 00010110 0 | 00101010 0
00010101 00010110 0 | 00101011 0
00010110 00010110 0 | 00101100 0
00010111 00010110 0 | 00101101 0
00011000 00010110 0 | 00101110 0
00011001 00010110 0 | 00101111 0
00011010 00010110 0 | 00110000 0
00011011 00010110 0 | 00110001 0
00011100 00010110 0 | 00110010 0
00011101 00010110 0 | 00110011 0
00011110 00010110 0 | 00110100 0
00011111 00010110 0 | 00110101 0
00000000 00010111 0 | 00010111 0
00000001 00010111 0 | 00011000 0
00000010 00010111 0 | 00011001 0
00000011 00010111 0 | 00011010 0
00000100 00010111 0 | 00011011 0
00000101 00010111 0 | 00011100 0
00000110 00010111 0 | 00011101 0
00000111 00010111 0 | 00011110 0
00001000 00010111 0 | 00011111 0
00001001 00010111 0 | 00100000 0
00001010 00010111 0 | 00100001 0
00001011 00010111 0 | 00100010 0
00001100 00010111 0 | 00100011 0
00001101 00010111 0 | 00100100 0
00001110 00010111 0 | 00100101 0
00001111 00010111 0 | 00100110 0
00010000 00010111 0 | 00100111 0
00010001 00010111 0 | 00101000 0
00010010 00010111 0 | 00101001 0
00010011 00010111 0 | 00101010 0
00010100 00010111 0 | 00101011 0
00010101 00010111 0 | 00101100 0
00010110 00010111 0 | 00101101 0
00010111 00010111 0 | 00101110 0
00011000 00010111 0 | 00101111 0
00011001 00010111 0 | 00110000 0
00011010 00010111 0 | 00110001 0
00011011 00010111 0 | 00110010 0
00011100 00010111 0 | 00110011 0
00011101 00010111 0 | 00110100 0
00011110 00010111 0 | 00110101 0
00011111 00010111 0 | 00110110 0
00000000 00011000 0 | 00011000 0
00000001 00011000 0 | 00011001 0
00000010 00011000 0 | 00011010 0
00000011 00011000 0 | 00011011 0
00000100 00011000 0 | 00011100 0
00000101 00011000 0 | 00011101 0
00000110 00011000 0 | 00011110 0
00000111 00011000 0 | 00011111 0
00001000 00011000 0 | 00100000 0
00001001 00011000 0 | 00100001 0
00001010 00011000 0 | 00100010 0
00001011 00011000 0 | 00100011 0
00001100 00011000 0 | 00100100 0
00001101 00011000 0 | 00100101 0
00001110 00011000 0 | 00100110 0
00001111 00011000 0 | 00100111 0
00010000 00011000 0 | 00101000 0
00010001 00011000 0 | 00101001 0
00010010 00011000 0 | 00101010 0
00010011 00011000 0 | 00101011 0
00010100 00011000 0 | 00101100 0
00010101 00011000 0 | 00101101 0
00010110 00011000 0 | 00101110 0
00010111 00011000 0 | 00101111 0
00011000 00011000 0 | 00110000 0
00011001 00011000 0 | 00110001 0
00011010 00011000 0 | 00110010 0
00011011 00011000 0 | 00110011 0
00011100 00011000 0 | 00110100 0
00011101 00011000 0 | 00110101 0
00011110 00011000 0 | 00110110 0
00011111 00011000 0 | 00110111 0
00000000 00011001 0 | 00011001 0
00000001 00011001 0 | 00011010 0
00000010 00011001 0 | 00011011 0
00000011 00011001 0 | 00011100 0
00000100 00011001 0 | 00011101 0
00000101 00011001 0 | 00011110 0
00000110 00011001 0 | 00011111 0
00000111 00011001 0 | 00100000 0
00001000 00011001 0 | 00100001 0
00001001 00011001 0 | 00100010 0
00001010 00011001 0 | 00100011 0
00001011 00011001 0 | 00100100 0
00001100 00011001 0 | 00100101 0
00001101 00011001 0 | 00100110 0
00001110 00011001 0 | 00100111 0
00001111 00011001 0 | 00101000 0
00010000 00011001 0 | 00101001 0
00010001 00011001 0 | 00101010 0
00010010 00011001 0 | 00101011 0
00010011 00011001 0 | 00101100 0
00010100 00011001 0 | 00101101 0
00010101 00011001 0 | 00101110 0
00010110 00011001 0 | 00101111 0
00010111 00011001 0 | 00110000 0
00011000 00011001 0 | 00110001 0
00011001 00011001 0 | 00110010 0
00011010 00011001 0 | 00110011 0
00011011 00011001 0 | 00110100 0
00011100 00011001 0 | 00110101 0
